Machine learning with tidymodels - 2 - Your data budget
…
company: The taxi company, as a factor. Companies that occurred few times were binned as “other”.

local: Whether the trip started in the same community area as it began. See the source data for community area values.

dow: The day of the week in which the trip began, as a factor.

month: The month in which the trip began, as a factor.

hour: The hour of the day in which the trip began, as a numeric.

Data on Chicago taxi trips

taxi
#> # A tibble: 8,807 × 7
#>    tip   distance company      local dow   month  hour
#>    <fct>    <dbl> <fct>        <fct> <fct> <fct> <int>
#>  1 yes       1.24 Sun Taxi     no    Thu   Feb      13
#>  2 no        5.39 Flash Cab    no    Sat   Mar      12
#>  3 yes       3.01 City Service no    Wed   Feb      17
#>  4 no       18.4  Sun Taxi     no    Sat   Apr       6
#>  5 yes       1.76 Sun Taxi     no    Sun   Jan      15
#>  6 yes      13.6  Sun Taxi     no    Mon   Feb      17
#>  7 yes       3.71 City Service no    Mon   Mar      21
#>  8 yes       4.8  other        no    Tue   Mar       9
#>  9 yes      18.0  City Service no    Fri   Jan      19
#> 10 no       17.5  other        yes   Thu   Apr      12
#> # ℹ 8,797 more rows
…
taxi_train
#> # A tibble: 6,605 × 7
#>    tip   distance company                   local dow   month  hour
#>    <fct>    <dbl> <fct>                     <fct> <fct> <fct> <int>
#>  1 yes       4.54 City Service              no    Sat   Mar      16
#>  2 no       10.2  Flash Cab                 no    Mon   Feb       8
#>  3 yes      12.4  other                     no    Sun   Apr      15
#>  4 yes      15.3  Sun Taxi                  no    Mon   Apr      18
#>  5 no        6.41 Flash Cab                 no    Wed   Apr      14
#>  6 yes       1.56 other                     no    Tue   Jan      13
#>  7 yes       3.13 Flash Cab                 no    Sun   Apr      12
#>  8 yes       7.54 other                     no    Tue   Apr       8
#>  9 yes       6.98 Flash Cab                 no    Tue   Apr       5
#> 10 yes       0.7  Taxi Affiliation Services no    Tue   Jan       9
#> # ℹ 6,595 more rows
…
taxi_test
#> # A tibble: 2,202 × 7
#>    tip   distance company              local dow   month  hour
#>    <fct>    <dbl> <fct>                <fct> <fct> <fct> <int>
#>  1 yes       3.01 City Service         no    Wed   Feb      17
#>  2 yes       4.8  other                no    Tue   Mar       9
#>  3 no       17.5  other                yes   Thu   Apr      12
#>  4 no        5.8  other                no    Tue   Jan      10
#>  5 no        6.85 Flash Cab            no    Fri   Apr       8
#>  6 yes       2.57 other                no    Wed   Apr      17
#>  7 yes       1.8  other                yes   Fri   Feb      20
#>  8 yes       6.1  Chicago Independents yes   Tue   Apr      16
#>  9 yes       2.26 other                no    Fri   Apr      16
#> 10 yes       0.68 Sun Taxi             no    Wed   Feb       8
#> # ℹ 2,192 more rows
…
