Machine learning with tidymodels - 4 - Evaluating models
…
tree_fit %>%
  augment(frog_train)
#> # A tibble: 456 × 6
#>    treatment  reflex    age t_o_d     latency .pred
#>    <chr>      <fct>   <dbl> <fct>       <dbl> <dbl>
#>  1 control    full   467950 morning        33  39.8
#>  2 control    full   464870 morning        19  66.7
#>  3 control    full   464610 morning         2  66.7
#>  4 control    full   469650 morning        39  39.8
#>  5 control    full   467600 morning        42  39.8
#>  6 control    full   410460 afternoon      20  59.8
#>  7 control    full   427685 night          31  83.1
#>  8 control    full   468530 morning        21  39.8
#>  9 gentamicin full   465800 morning        30  64.6
#> 10 control    full   393475 afternoon      43 174. 
#> # … with 446 more rows
…
bootstraps(frog_train)
#> # Bootstrap sampling 
#> # A tibble: 25 × 2
#>    splits            id         
#>    <list>            <chr>      
#>  1 <split [456/159]> Bootstrap01
#>  2 <split [456/168]> Bootstrap02
#>  3 <split [456/175]> Bootstrap03
#>  4 <split [456/176]> Bootstrap04
#>  5 <split [456/162]> Bootstrap05
#>  6 <split [456/169]> Bootstrap06
#>  7 <split [456/161]> Bootstrap07
#>  8 <split [456/169]> Bootstrap08
#>  9 <split [456/177]> Bootstrap09
#> 10 <split [456/174]> Bootstrap10
#> # … with 15 more rows
…
# Save the assessment set results
ctrl_frog <- control_resamples(save_pred = TRUE)
tree_res <- fit_resamples(tree_wflow, frog_folds, control = ctrl_frog)

tree_preds <- collect_predictions(tree_res)
tree_preds
#> # A tibble: 456 × 5
#>    id     .pred  .row latency .config             
#>    <chr>  <dbl> <int>   <dbl> <chr>               
#>  1 Fold01  39.6     1      33 Preprocessor1_Model1
#>  2 Fold01  72.1     3       2 Preprocessor1_Model1
#>  3 Fold01  63.8     9      30 Preprocessor1_Model1
#>  4 Fold01  72.1    13      46 Preprocessor1_Model1
#>  5 Fold01  43.3    28      11 Preprocessor1_Model1
#>  6 Fold01  61.7    35      41 Preprocessor1_Model1
#>  7 Fold01  39.6    51      43 Preprocessor1_Model1
#>  8 Fold01 134.     70      20 Preprocessor1_Model1
#>  9 Fold01  70.6    74      21 Preprocessor1_Model1
#> 10 Fold01  39.6   106      14 Preprocessor1_Model1
#> # … with 446 more rows
…
collect_predictions(final_fit)
#> # A tibble: 116 × 5
#>    id               .pred  .row latency .config             
#>    <chr>            <dbl> <int>   <dbl> <chr>               
#>  1 train/test split  43.5     1      22 Preprocessor1_Model1
#>  2 train/test split 104.      3     106 Preprocessor1_Model1
#>  3 train/test split  76.2     6      39 Preprocessor1_Model1
#>  4 train/test split  42.5     8      50 Preprocessor1_Model1
#>  5 train/test split  43.5    10      63 Preprocessor1_Model1
#>  6 train/test split  43.1    14      25 Preprocessor1_Model1
#>  7 train/test split  51.5    16      48 Preprocessor1_Model1
#>  8 train/test split 160.     17      91 Preprocessor1_Model1
#>  9 train/test split  50.9    32      11 Preprocessor1_Model1
#> 10 train/test split 171.     33     109 Preprocessor1_Model1
#> # … with 106 more rows
…
