Machine learning with tidymodels – 2 - Your data budget
…
Is it ethical to use this variable? (Or even legal?)

Will this variable be available at prediction time?

Does this variable contribute to explainability?

re: ethics – what issues might arise from releasing the true lat and lon? In reality, these lat and lon are slightly jittered to help ensure trust with landowners who allow surveyers to come take measurements.

Data on forests in Georgia

library(tidymodels)
library(forested)

forested_ga
#> # A tibble: 10,937 × 19
#>    forested  year elevation eastness roughness tree_no_tree dew_temp
#>    <fct>    <dbl>     <dbl>    <dbl>     <dbl> <fct>           <dbl>
#>  1 Yes       2007        14        0         0 No tree          13.9
#>  2 Yes       2007        66      -53        10 Tree             13.8
#>  3 Yes       2006        59      -82         6 No tree          13.5
#>  4 Yes       2007       116      -78        20 Tree             12.3
#>  5 Yes       2006       283       63        13 Tree             10.0
#>  6 Yes       2007       250       63        14 Tree             10.8
#>  7 Yes       2007        58       31         1 No tree          13.8
#>  8 Yes       2023       140       56        11 Tree             12.2
#>  9 Yes       2024       118       72        17 Tree             12.2
#> 10 Yes       2024       217      -46        13 Tree             12.4
#> # ℹ 10,927 more rows
#> # ℹ 12 more variables: precip_annual <dbl>, temp_annual_mean <dbl>,
#> #   temp_annual_min <dbl>, temp_annual_max <dbl>, temp_january_min <dbl>,
#> #   vapor_min <dbl>, vapor_max <dbl>, canopy_cover <dbl>, lon <dbl>, lat <dbl>,
#> #   land_type <fct>, county <fct>
…
forested_train
#> # A tibble: 8,202 × 19
#>    forested  year elevation eastness roughness tree_no_tree dew_temp
#>    <fct>    <dbl>     <dbl>    <dbl>     <dbl> <fct>           <dbl>
#>  1 Yes       1997        66       82        10 Tree            12.2 
#>  2 No        1997       284      -99        58 Tree            10.3 
#>  3 Yes       2022       130       86        15 Tree            11.8 
#>  4 Yes       2021       202      -55         3 Tree            10.7 
#>  5 Yes       1995        75      -89         1 Tree            13.8 
#>  6 No        1995       110      -53         5 Tree            12.4 
#>  7 Yes       2022       111       73        12 Tree            11.5 
#>  8 Yes       1997       230       96        14 Tree             9.98
#>  9 Yes       2002       160      -88        13 Tree            11.1 
#> 10 Yes       2020        39        9         6 Tree            13.9 
#> # ℹ 8,192 more rows
#> # ℹ 12 more variables: precip_annual <dbl>, temp_annual_mean <dbl>,
#> #   temp_annual_min <dbl>, temp_annual_max <dbl>, temp_january_min <dbl>,
#> #   vapor_min <dbl>, vapor_max <dbl>, canopy_cover <dbl>, lon <dbl>, lat <dbl>,
#> #   land_type <fct>, county <fct>
…
