Machine learning with tidymodels – 4 - Evaluating models
…
  4 - Evaluating models

  Introduction to tidymodels

Looking at predictions

augment(forested_fit, new_data = forested_train)
#> # A tibble: 8,749 × 22
#>    .pred_class .pred_Yes .pred_No forested  year elevation eastness roughness
#>    <fct>           <dbl>    <dbl> <fct>    <dbl>     <dbl>    <dbl>     <dbl>
#>  1 Yes             0.931   0.0690 Yes       1997        66       82        10
#>  2 Yes             0.983   0.0172 No        1997       284      -99        58
#>  3 Yes             0.960   0.0401 Yes       2022       130       86        15
#>  4 Yes             0.870   0.130  Yes       2021       202      -55         3
#>  5 Yes             0.823   0.177  Yes       1995        75      -89         1
#>  6 Yes             0.758   0.242  No        1995       110      -53         5
#>  7 Yes             0.823   0.177  Yes       2022       111       73        12
#>  8 No              0.467   0.533  Yes       1997       230       96        14
#>  9 Yes             0.983   0.0172 Yes       2002       160      -88        13
#> 10 Yes             0.871   0.129  Yes       2020        39        9         6
#> # ℹ 8,739 more rows
#> # ℹ 14 more variables: tree_no_tree <fct>, dew_temp <dbl>, precip_annual <dbl>,
#> #   temp_annual_mean <dbl>, temp_annual_min <dbl>, temp_annual_max <dbl>,
#> #   temp_january_min <dbl>, vapor_min <dbl>, vapor_max <dbl>,
#> #   canopy_cover <dbl>, lon <dbl>, lat <dbl>, land_type <fct>, county <fct>
…
forested_fit |>
  augment(forested_train)
#> # A tibble: 8,749 × 22
#>    .pred_class .pred_Yes .pred_No forested  year elevation eastness roughness
#>    <fct>           <dbl>    <dbl> <fct>    <dbl>     <dbl>    <dbl>     <dbl>
#>  1 Yes             0.931   0.0690 Yes       1997        66       82        10
#>  2 Yes             0.983   0.0172 No        1997       284      -99        58
#>  3 Yes             0.960   0.0401 Yes       2022       130       86        15
#>  4 Yes             0.870   0.130  Yes       2021       202      -55         3
#>  5 Yes             0.823   0.177  Yes       1995        75      -89         1
#>  6 Yes             0.758   0.242  No        1995       110      -53         5
#>  7 Yes             0.823   0.177  Yes       2022       111       73        12
#>  8 No              0.467   0.533  Yes       1997       230       96        14
#>  9 Yes             0.983   0.0172 Yes       2002       160      -88        13
#> 10 Yes             0.871   0.129  Yes       2020        39        9         6
#> # ℹ 8,739 more rows
#> # ℹ 14 more variables: tree_no_tree <fct>, dew_temp <dbl>, precip_annual <dbl>,
#> #   temp_annual_mean <dbl>, temp_annual_min <dbl>, temp_annual_max <dbl>,
#> #   temp_january_min <dbl>, vapor_min <dbl>, vapor_max <dbl>,
#> #   canopy_cover <dbl>, lon <dbl>, lat <dbl>, land_type <fct>, county <fct>
…
# Save the assessment set results
forested_preds <- collect_predictions(forested_res)
forested_preds
#> # A tibble: 8,749 × 7
#>    .pred_class .pred_Yes .pred_No id      .row forested .config             
#>    <fct>           <dbl>    <dbl> <chr>  <int> <fct>    <chr>               
#>  1 Yes             0.953   0.0473 Fold01     2 No       Preprocessor1_Model1
#>  2 Yes             0.6     0.4    Fold01     6 No       Preprocessor1_Model1
#>  3 Yes             0.848   0.152  Fold01     7 Yes      Preprocessor1_Model1
#>  4 Yes             0.941   0.0588 Fold01    36 Yes      Preprocessor1_Model1
#>  5 Yes             0.895   0.105  Fold01    38 No       Preprocessor1_Model1
#>  6 Yes             1       0      Fold01    58 Yes      Preprocessor1_Model1
#>  7 No              0.187   0.812  Fold01    69 No       Preprocessor1_Model1
#>  8 Yes             0.905   0.0952 Fold01    71 Yes      Preprocessor1_Model1
#>  9 Yes             0.907   0.0930 Fold01    74 Yes      Preprocessor1_Model1
#> 10 Yes             0.904   0.0962 Fold01    80 Yes      Preprocessor1_Model1
#> # ℹ 8,739 more rows
…
forested_preds |> 
  group_by(id) |>
  forested_metrics(truth = forested, estimate = .pred_class)
#> # A tibble: 30 × 4
#>    id     .metric  .estimator .estimate
#>    <chr>  <chr>    <chr>          <dbl>
#>  1 Fold01 accuracy binary         0.729
#>  2 Fold02 accuracy binary         0.685
#>  3 Fold03 accuracy binary         0.687
#>  4 Fold04 accuracy binary         0.711
#>  5 Fold05 accuracy binary         0.736
#>  6 Fold06 accuracy binary         0.670
#>  7 Fold07 accuracy binary         0.699
#>  8 Fold08 accuracy binary         0.710
#>  9 Fold09 accuracy binary         0.699
#> 10 Fold10 accuracy binary         0.719
#> # ℹ 20 more rows
…
set.seed(3214)
bootstraps(forested_train)
#> # Bootstrap sampling 
#> # A tibble: 25 × 2
#>    splits              id         
#>    <list>              <chr>      
#>  1 <split [8749/3218]> Bootstrap01
#>  2 <split [8749/3264]> Bootstrap02
#>  3 <split [8749/3220]> Bootstrap03
#>  4 <split [8749/3208]> Bootstrap04
#>  5 <split [8749/3230]> Bootstrap05
#>  6 <split [8749/3197]> Bootstrap06
#>  7 <split [8749/3193]> Bootstrap07
#>  8 <split [8749/3226]> Bootstrap08
#>  9 <split [8749/3243]> Bootstrap09
#> 10 <split [8749/3233]> Bootstrap10
#> # ℹ 15 more rows
…
collect_predictions(final_fit)
#> # A tibble: 2,188 × 7
#>    .pred_class .pred_Yes .pred_No id                .row forested .config       
#>    <fct>           <dbl>    <dbl> <chr>            <int> <fct>    <chr>         
#>  1 Yes             0.964   0.0363 train/test split     4 Yes      Preprocessor1…
#>  2 Yes             0.793   0.207  train/test split     8 Yes      Preprocessor1…
#>  3 Yes             0.815   0.185  train/test split    10 Yes      Preprocessor1…
#>  4 Yes             0.852   0.148  train/test split    19 Yes      Preprocessor1…
#>  5 Yes             0.838   0.162  train/test split    23 Yes      Preprocessor1…
#>  6 Yes             0.552   0.448  train/test split    28 No       Preprocessor1…
#>  7 Yes             0.831   0.169  train/test split    34 Yes      Preprocessor1…
#>  8 Yes             0.614   0.386  train/test split    35 No       Preprocessor1…
#>  9 Yes             0.975   0.0251 train/test split    38 Yes      Preprocessor1…
#> 10 Yes             0.944   0.0561 train/test split    40 Yes      Preprocessor1…
#> # ℹ 2,178 more rows
…
