Machine learning with tidymodels – 4 - Evaluar modelos
…
  4 - Evaluar modelos

  Introducciendo Tidymodels

Viendo las predicciones

augment(taxi_ajustado, new_data = taxi_entrenar) %>%
  relocate(propina, .pred_class, .pred_si, .pred_no)
#> # A tibble: 8,000 × 10
#>    propina .pred_class .pred_si .pred_no distancia compania    local dia   mes  
#>    <fct>   <fct>          <dbl>    <dbl>     <dbl> <fct>       <fct> <fct> <fct>
#>  1 si      si             0.967   0.0333     17.2  Chicago In… no    Jue   Feb  
#>  2 si      si             0.935   0.0646      0.88 City Servi… si    Jue   Mar  
#>  3 si      si             0.967   0.0333     18.1  otra        no    Lun   Feb  
#>  4 si      si             0.949   0.0507     12.2  Chicago In… no    Dom   Mar  
#>  5 si      si             0.821   0.179       0.94 Sun Taxi    si    Sab   Abr  
#>  6 si      si             0.967   0.0333     17.5  Flash Cab   no    Vie   Mar  
#>  7 si      si             0.967   0.0333     17.7  otra        no    Dom   Ene  
#>  8 si      si             0.938   0.0616      1.85 Taxicab In… no    Vie   Abr  
#>  9 si      si             0.938   0.0616      0.53 Sun Taxi    no    Mar   Mar  
#> 10 si      si             0.931   0.0694      6.65 Taxicab In… no    Dom   Abr  
#> # ℹ 7,990 more rows
#> # ℹ 1 more variable: hora <int>
…
taxi_ajustado %>%
  augment(taxi_entrenar)
#> # A tibble: 8,000 × 10
#>    .pred_class .pred_si .pred_no propina distancia compania    local dia   mes  
#>    <fct>          <dbl>    <dbl> <fct>       <dbl> <fct>       <fct> <fct> <fct>
#>  1 si             0.967   0.0333 si          17.2  Chicago In… no    Jue   Feb  
#>  2 si             0.935   0.0646 si           0.88 City Servi… si    Jue   Mar  
#>  3 si             0.967   0.0333 si          18.1  otra        no    Lun   Feb  
#>  4 si             0.949   0.0507 si          12.2  Chicago In… no    Dom   Mar  
#>  5 si             0.821   0.179  si           0.94 Sun Taxi    si    Sab   Abr  
#>  6 si             0.967   0.0333 si          17.5  Flash Cab   no    Vie   Mar  
#>  7 si             0.967   0.0333 si          17.7  otra        no    Dom   Ene  
#>  8 si             0.938   0.0616 si           1.85 Taxicab In… no    Vie   Abr  
#>  9 si             0.938   0.0616 si           0.53 Sun Taxi    no    Mar   Mar  
#> 10 si             0.931   0.0694 si           6.65 Taxicab In… no    Dom   Abr  
#> # ℹ 7,990 more rows
#> # ℹ 1 more variable: hora <int>
…
# Guarde los resultados de las evaluaciones
taxi_preds <- collect_predictions(taxi_res)
taxi_preds
#> # A tibble: 8,000 × 7
#>    id     .pred_si .pred_no  .row .pred_class propina .config             
#>    <chr>     <dbl>    <dbl> <int> <fct>       <fct>   <chr>               
#>  1 Fold01    0.938   0.0615    14 si          si      Preprocessor1_Model1
#>  2 Fold01    0.946   0.0544    19 si          si      Preprocessor1_Model1
#>  3 Fold01    0.973   0.0269    33 si          si      Preprocessor1_Model1
#>  4 Fold01    0.903   0.0971    43 si          si      Preprocessor1_Model1
#>  5 Fold01    0.973   0.0269    74 si          si      Preprocessor1_Model1
#>  6 Fold01    0.903   0.0971   103 si          si      Preprocessor1_Model1
#>  7 Fold01    0.915   0.0851   104 si          no      Preprocessor1_Model1
#>  8 Fold01    0.903   0.0971   124 si          si      Preprocessor1_Model1
#>  9 Fold01    0.667   0.333    126 si          si      Preprocessor1_Model1
#> 10 Fold01    0.949   0.0510   128 si          si      Preprocessor1_Model1
#> # ℹ 7,990 more rows
…
taxi_preds %>% 
  group_by(id) %>%
  taxi_metrics(truth = propina, estimate = .pred_class)
#> # A tibble: 30 × 4
#>    id     .metric  .estimator .estimate
#>    <chr>  <chr>    <chr>          <dbl>
#>  1 Fold01 accuracy binary         0.905
#>  2 Fold02 accuracy binary         0.925
#>  3 Fold03 accuracy binary         0.926
#>  4 Fold04 accuracy binary         0.915
#>  5 Fold05 accuracy binary         0.902
#>  6 Fold06 accuracy binary         0.912
#>  7 Fold07 accuracy binary         0.906
#>  8 Fold08 accuracy binary         0.91 
#>  9 Fold09 accuracy binary         0.918
#> 10 Fold10 accuracy binary         0.931
#> # ℹ 20 more rows
…
set.seed(3214)
bootstraps(taxi_entrenar)
#> # Bootstrap sampling 
#> # A tibble: 25 × 2
#>    splits              id         
#>    <list>              <chr>      
#>  1 <split [8000/2902]> Bootstrap01
#>  2 <split [8000/2916]> Bootstrap02
#>  3 <split [8000/3004]> Bootstrap03
#>  4 <split [8000/2979]> Bootstrap04
#>  5 <split [8000/2961]> Bootstrap05
#>  6 <split [8000/2962]> Bootstrap06
#>  7 <split [8000/3026]> Bootstrap07
#>  8 <split [8000/2926]> Bootstrap08
#>  9 <split [8000/2972]> Bootstrap09
#> 10 <split [8000/2972]> Bootstrap10
#> # ℹ 15 more rows
…
collect_predictions(ajuste_final)
#> # A tibble: 2,000 × 7
#>    id               .pred_si .pred_no  .row .pred_class propina .config         
#>    <chr>               <dbl>    <dbl> <int> <fct>       <fct>   <chr>           
#>  1 train/test split    0.949   0.0513     4 si          si      Preprocessor1_M…
#>  2 train/test split    0.922   0.0777    10 si          si      Preprocessor1_M…
#>  3 train/test split    0.961   0.0395    19 si          si      Preprocessor1_M…
#>  4 train/test split    0.889   0.111     23 si          si      Preprocessor1_M…
#>  5 train/test split    0.936   0.0639    28 si          si      Preprocessor1_M…
#>  6 train/test split    0.969   0.0306    34 si          si      Preprocessor1_M…
#>  7 train/test split    0.962   0.0377    35 si          si      Preprocessor1_M…
#>  8 train/test split    0.939   0.0606    38 si          si      Preprocessor1_M…
#>  9 train/test split    0.986   0.0138    40 si          si      Preprocessor1_M…
#> 10 train/test split    0.957   0.0431    42 si          no      Preprocessor1_M…
#> # ℹ 1,990 more rows
…
