Machine learning with tidymodels – 4 - Evaluating models
…
tree_fit %>%
  augment(frog_train)
#> # A tibble: 456 × 6
#>    treatment  reflex   age t_o_d     latency .pred
#>    <fct>      <fct>  <dbl> <fct>       <dbl> <dbl>
#>  1 control    full    5.42 morning        33  39.8
#>  2 control    full    5.38 morning        19  66.7
#>  3 control    full    5.38 morning         2  66.7
#>  4 control    full    5.44 morning        39  39.8
#>  5 control    full    5.41 morning        42  39.8
#>  6 control    full    4.75 afternoon      20  59.8
#>  7 control    full    4.95 night          31  83.1
#>  8 control    full    5.42 morning        21  39.8
#>  9 gentamicin full    5.39 morning        30  64.6
#> 10 control    full    4.55 afternoon      43 174. 
#> # ℹ 446 more rows
…
# Save the assessment set results
ctrl_frog <- control_resamples(save_pred = TRUE)
tree_res <- fit_resamples(tree_wflow, frog_folds, control = ctrl_frog)

tree_preds <- collect_predictions(tree_res)
tree_preds
#> # A tibble: 456 × 5
#>    id     .pred  .row latency .config             
#>    <chr>  <dbl> <int>   <dbl> <chr>               
#>  1 Fold01  39.6     1      33 Preprocessor1_Model1
#>  2 Fold01  72.1     3       2 Preprocessor1_Model1
#>  3 Fold01  63.8     9      30 Preprocessor1_Model1
#>  4 Fold01  72.1    13      46 Preprocessor1_Model1
#>  5 Fold01  43.3    28      11 Preprocessor1_Model1
#>  6 Fold01  61.7    35      41 Preprocessor1_Model1
#>  7 Fold01  39.6    51      43 Preprocessor1_Model1
#>  8 Fold01 134.     70      20 Preprocessor1_Model1
#>  9 Fold01  70.6    74      21 Preprocessor1_Model1
#> 10 Fold01  39.6   106      14 Preprocessor1_Model1
#> # ℹ 446 more rows
…
set.seed(3214)
bootstraps(frog_train)
#> # Bootstrap sampling 
#> # A tibble: 25 × 2
#>    splits            id         
#>    <list>            <chr>      
#>  1 <split [456/163]> Bootstrap01
#>  2 <split [456/166]> Bootstrap02
#>  3 <split [456/173]> Bootstrap03
#>  4 <split [456/177]> Bootstrap04
#>  5 <split [456/166]> Bootstrap05
#>  6 <split [456/163]> Bootstrap06
#>  7 <split [456/164]> Bootstrap07
#>  8 <split [456/165]> Bootstrap08
#>  9 <split [456/170]> Bootstrap09
#> 10 <split [456/177]> Bootstrap10
#> # ℹ 15 more rows
…
collect_predictions(final_fit)
#> # A tibble: 116 × 5
#>    id               .pred  .row latency .config             
#>    <chr>            <dbl> <int>   <dbl> <chr>               
#>  1 train/test split  44.1     1      22 Preprocessor1_Model1
#>  2 train/test split 101.      3     106 Preprocessor1_Model1
#>  3 train/test split  75.7     6      39 Preprocessor1_Model1
#>  4 train/test split  43.1     8      50 Preprocessor1_Model1
#>  5 train/test split  43.5    10      63 Preprocessor1_Model1
#>  6 train/test split  43.8    14      25 Preprocessor1_Model1
#>  7 train/test split  51.2    16      48 Preprocessor1_Model1
#>  8 train/test split 161.     17      91 Preprocessor1_Model1
#>  9 train/test split  50.9    32      11 Preprocessor1_Model1
#> 10 train/test split 177.     33     109 Preprocessor1_Model1
#> # ℹ 106 more rows
…
