Machine learning with tidymodels – 1 - Feature Engineering
…
summary(hotel_rec)
#> # A tibble: 27 × 4
#>    variable                type      role      source  
#>    <chr>                   <list>    <chr>     <chr>   
#>  1 lead_time               <chr [2]> predictor original
#>  2 stays_in_weekend_nights <chr [2]> predictor original
#>  3 stays_in_week_nights    <chr [2]> predictor original
#>  4 adults                  <chr [2]> predictor original
#>  5 children                <chr [2]> predictor original
#>  6 babies                  <chr [2]> predictor original
#>  7 meal                    <chr [3]> predictor original
#>  8 country                 <chr [3]> predictor original
#>  9 market_segment          <chr [3]> predictor original
#> 10 distribution_channel    <chr [3]> predictor original
#> # ℹ 17 more rows
…
# Since we used `save_pred = TRUE`
lm_cv_pred <- collect_predictions(hotel_lm_res)
lm_cv_pred %>% print(n = 7)
#> # A tibble: 3,749 × 5
#>   id     .pred  .row avg_price_per_room .config             
#>   <chr>  <dbl> <int>              <dbl> <chr>               
#> 1 Fold01  75.1    20                 40 Preprocessor1_Model1
#> 2 Fold01  49.3    28                 54 Preprocessor1_Model1
#> 3 Fold01  64.9    45                 50 Preprocessor1_Model1
#> 4 Fold01  52.8    49                 42 Preprocessor1_Model1
#> 5 Fold01  48.6    61                 49 Preprocessor1_Model1
#> 6 Fold01  29.8    66                 40 Preprocessor1_Model1
#> 7 Fold01  36.9    88                 49 Preprocessor1_Model1
#> # ℹ 3,742 more rows
…
