Machine learning with tidymodels - Case Study on Transportation
…
chi_rec <- 
  recipe(ridership ~ ., data = chi_train)

Based on the formula, the function assigns columns to roles of “outcome” or “predictor”

A recipe

summary(chi_rec)
#> # A tibble: 50 × 4
#>    variable         type      role      source  
#>    <chr>            <list>    <chr>     <chr>   
#>  1 Austin           <chr [2]> predictor original
#>  2 Quincy_Wells     <chr [2]> predictor original
#>  3 Belmont          <chr [2]> predictor original
#>  4 Archer_35th      <chr [2]> predictor original
#>  5 Oak_Park         <chr [2]> predictor original
#>  6 Western          <chr [2]> predictor original
#>  7 Clark_Lake       <chr [2]> predictor original
#>  8 Clinton          <chr [2]> predictor original
#>  9 Merchandise_Mart <chr [2]> predictor original
#> 10 Irving_Park      <chr [2]> predictor original
#> # ℹ 40 more rows
…
chi_res <- 
  chi_set %>% 
  workflow_map(
    resamples = chi_rs,
    grid = 10,
    control = grid_ctrl,
    verbose = TRUE,
    seed = 12
  )

How do the results look?

rank_results(chi_res)
#> # A tibble: 31 × 9
#>    wflow_id     .config              .metric  mean std_err     n preprocessor model   rank
#>    <chr>        <chr>                <chr>   <dbl>   <dbl> <int> <chr>        <chr>  <int>
#>  1 pca_cubist   Preprocessor1_Model1 mae     0.798   0.104    16 recipe       cubis…     1
#>  2 pca_cubist   Preprocessor3_Model3 mae     0.978   0.110    16 recipe       cubis…     2
#>  3 pca_cubist   Preprocessor4_Model2 mae     0.983   0.122    16 recipe       cubis…     3
#>  4 pca_cubist   Preprocessor4_Model1 mae     0.991   0.127    16 recipe       cubis…     4
#>  5 pca_cubist   Preprocessor3_Model2 mae     0.991   0.113    16 recipe       cubis…     5
#>  6 pca_cubist   Preprocessor2_Model2 mae     1.02    0.118    16 recipe       cubis…     6
#>  7 pca_cubist   Preprocessor1_Model3 mae     1.05    0.134    16 recipe       cubis…     7
#>  8 basic_cubist Preprocessor1_Model8 mae     1.07    0.115    16 recipe       cubis…     8
#>  9 basic_cubist Preprocessor1_Model7 mae     1.07    0.112    16 recipe       cubis…     9
#> 10 basic_cubist Preprocessor1_Model6 mae     1.07    0.114    16 recipe       cubis…    10
#> # ℹ 21 more rows
…
