Machine learning with tidymodels – Extras - Recipes
…
  Extras - Recipes

  Introduction to tidymodels

Looking at the predictors

taxi_train
#> # A tibble: 8,000 × 7
#>    tip   distance company                      local dow   month  hour
#>    <fct>    <dbl> <fct>                        <fct> <fct> <fct> <int>
#>  1 yes      17.2  Chicago Independents         no    Thu   Feb      16
#>  2 yes       0.88 City Service                 yes   Thu   Mar       8
#>  3 yes      18.1  other                        no    Mon   Feb      18
#>  4 yes      12.2  Chicago Independents         no    Sun   Mar      21
#>  5 yes       0.94 Sun Taxi                     yes   Sat   Apr      23
#>  6 yes      17.5  Flash Cab                    no    Fri   Mar      12
#>  7 yes      17.7  other                        no    Sun   Jan       6
#>  8 yes       1.85 Taxicab Insurance Agency Llc no    Fri   Apr      12
#>  9 yes       0.53 Sun Taxi                     no    Tue   Mar      18
#> 10 yes       6.65 Taxicab Insurance Agency Llc no    Sun   Apr      11
#> # ℹ 7,990 more rows
…
Baking a recipe

prep(taxi_rec) %>%
  bake(new_data = taxi_train)
#> # A tibble: 8,000 × 19
#>    distance   hour tip   company_City.Service company_Flash.Cab company_Sun.Taxi company_Taxi.Affiliatio…¹ company_Taxicab.Insu…² company_other local_no dow_Mon dow_Tue dow_Wed dow_Thu dow_Fri dow_Sat
#>       <dbl>  <dbl> <fct>                <dbl>             <dbl>            <dbl>                     <dbl>                  <dbl>         <dbl>    <dbl>   <dbl>   <dbl>   <dbl>   <dbl>   <dbl>   <dbl>
#>  1    1.38   0.418 yes                 -0.366            -0.333           -0.403                    -0.450                 -0.379        -0.609    0.484  -0.396  -0.441  -0.461   2.01   -0.428  -0.317
#>  2   -0.729 -1.42  yes                  2.73             -0.333           -0.403                    -0.450                 -0.379        -0.609   -2.07   -0.396  -0.441  -0.461   2.01   -0.428  -0.317
#>  3    1.42   0.877 yes                 -0.366            -0.333           -0.403                    -0.450                 -0.379         1.64     0.484   2.53   -0.441  -0.461  -0.497  -0.428  -0.317
#>  4    1.11   1.57  yes                 -0.366            -0.333           -0.403                    -0.450                 -0.379        -0.609    0.484  -0.396  -0.441  -0.461  -0.497  -0.428  -0.317
#>  5   -0.694  2.03  yes                 -0.366            -0.333            2.48                     -0.450                 -0.379        -0.609   -2.07   -0.396  -0.441  -0.461  -0.497  -0.428   3.15 
#>  6    1.39  -0.502 yes                 -0.366             3.01            -0.403                    -0.450                 -0.379        -0.609    0.484  -0.396  -0.441  -0.461  -0.497   2.34   -0.317
#>  7    1.40  -1.88  yes                 -0.366            -0.333           -0.403                    -0.450                 -0.379         1.64     0.484  -0.396  -0.441  -0.461  -0.497  -0.428  -0.317
#>  8   -0.289 -0.502 yes                 -0.366            -0.333           -0.403                    -0.450                  2.64         -0.609    0.484  -0.396  -0.441  -0.461  -0.497   2.34   -0.317
#>  9   -0.971  0.877 yes                 -0.366            -0.333            2.48                     -0.450                 -0.379        -0.609    0.484  -0.396   2.27   -0.461  -0.497  -0.428  -0.317
#> 10    0.631 -0.732 yes                 -0.366            -0.333           -0.403                    -0.450                  2.64         -0.609    0.484  -0.396  -0.441  -0.461  -0.497  -0.428  -0.317
#> # ℹ 7,990 more rows
#> # ℹ abbreviated names: ¹​company_Taxi.Affiliation.Services, ²​company_Taxicab.Insurance.Agency.Llc
#> # ℹ 3 more variables: month_Feb <dbl>, month_Mar <dbl>, month_Apr <dbl>
…
