Machine learning with tidymodels – 4 - Evaluating models
…
  4 - Evaluating models

  Introduction to tidymodels

Looking at predictions

augment(taxi_fit, new_data = taxi_train) %>%
  relocate(tip, .pred_class, .pred_yes, .pred_no)
#> # A tibble: 8,000 × 10
#>    tip   .pred_class .pred_yes .pred_no distance company local dow   month  hour
#>    <fct> <fct>           <dbl>    <dbl>    <dbl> <fct>   <fct> <fct> <fct> <int>
#>  1 yes   yes             0.967   0.0333    17.2  Chicag… no    Thu   Feb      16
#>  2 yes   yes             0.935   0.0646     0.88 City S… yes   Thu   Mar       8
#>  3 yes   yes             0.967   0.0333    18.1  other   no    Mon   Feb      18
#>  4 yes   yes             0.949   0.0507    12.2  Chicag… no    Sun   Mar      21
#>  5 yes   yes             0.821   0.179      0.94 Sun Ta… yes   Sat   Apr      23
#>  6 yes   yes             0.967   0.0333    17.5  Flash … no    Fri   Mar      12
#>  7 yes   yes             0.967   0.0333    17.7  other   no    Sun   Jan       6
#>  8 yes   yes             0.938   0.0616     1.85 Taxica… no    Fri   Apr      12
#>  9 yes   yes             0.938   0.0616     0.53 Sun Ta… no    Tue   Mar      18
#> 10 yes   yes             0.931   0.0694     6.65 Taxica… no    Sun   Apr      11
#> # ℹ 7,990 more rows
…
taxi_fit %>%
  augment(taxi_train)
#> # A tibble: 8,000 × 10
#>    tip   distance company local dow   month  hour .pred_class .pred_yes .pred_no
#>    <fct>    <dbl> <fct>   <fct> <fct> <fct> <int> <fct>           <dbl>    <dbl>
#>  1 yes      17.2  Chicag… no    Thu   Feb      16 yes             0.967   0.0333
#>  2 yes       0.88 City S… yes   Thu   Mar       8 yes             0.935   0.0646
#>  3 yes      18.1  other   no    Mon   Feb      18 yes             0.967   0.0333
#>  4 yes      12.2  Chicag… no    Sun   Mar      21 yes             0.949   0.0507
#>  5 yes       0.94 Sun Ta… yes   Sat   Apr      23 yes             0.821   0.179 
#>  6 yes      17.5  Flash … no    Fri   Mar      12 yes             0.967   0.0333
#>  7 yes      17.7  other   no    Sun   Jan       6 yes             0.967   0.0333
#>  8 yes       1.85 Taxica… no    Fri   Apr      12 yes             0.938   0.0616
#>  9 yes       0.53 Sun Ta… no    Tue   Mar      18 yes             0.938   0.0616
#> 10 yes       6.65 Taxica… no    Sun   Apr      11 yes             0.931   0.0694
#> # ℹ 7,990 more rows
…
# Save the assessment set results
taxi_preds <- collect_predictions(taxi_res)
taxi_preds
#> # A tibble: 8,000 × 7
#>    id     .pred_yes .pred_no  .row .pred_class tip   .config             
#>    <chr>      <dbl>    <dbl> <int> <fct>       <fct> <chr>               
#>  1 Fold01     0.938   0.0615    14 yes         yes   Preprocessor1_Model1
#>  2 Fold01     0.946   0.0544    19 yes         yes   Preprocessor1_Model1
#>  3 Fold01     0.973   0.0269    33 yes         yes   Preprocessor1_Model1
#>  4 Fold01     0.903   0.0971    43 yes         yes   Preprocessor1_Model1
#>  5 Fold01     0.973   0.0269    74 yes         yes   Preprocessor1_Model1
#>  6 Fold01     0.903   0.0971   103 yes         yes   Preprocessor1_Model1
#>  7 Fold01     0.915   0.0851   104 yes         no    Preprocessor1_Model1
#>  8 Fold01     0.903   0.0971   124 yes         yes   Preprocessor1_Model1
#>  9 Fold01     0.667   0.333    126 yes         yes   Preprocessor1_Model1
#> 10 Fold01     0.949   0.0510   128 yes         yes   Preprocessor1_Model1
#> # ℹ 7,990 more rows
…
taxi_preds %>% 
  group_by(id) %>%
  taxi_metrics(truth = tip, estimate = .pred_class)
#> # A tibble: 30 × 4
#>    id     .metric  .estimator .estimate
#>    <chr>  <chr>    <chr>          <dbl>
#>  1 Fold01 accuracy binary         0.905
#>  2 Fold02 accuracy binary         0.925
#>  3 Fold03 accuracy binary         0.926
#>  4 Fold04 accuracy binary         0.915
#>  5 Fold05 accuracy binary         0.902
#>  6 Fold06 accuracy binary         0.912
#>  7 Fold07 accuracy binary         0.906
#>  8 Fold08 accuracy binary         0.91 
#>  9 Fold09 accuracy binary         0.918
#> 10 Fold10 accuracy binary         0.931
#> # ℹ 20 more rows
…
set.seed(3214)
bootstraps(taxi_train)
#> # Bootstrap sampling 
#> # A tibble: 25 × 2
#>    splits              id         
#>    <list>              <chr>      
#>  1 <split [8000/2902]> Bootstrap01
#>  2 <split [8000/2916]> Bootstrap02
#>  3 <split [8000/3004]> Bootstrap03
#>  4 <split [8000/2979]> Bootstrap04
#>  5 <split [8000/2961]> Bootstrap05
#>  6 <split [8000/2962]> Bootstrap06
#>  7 <split [8000/3026]> Bootstrap07
#>  8 <split [8000/2926]> Bootstrap08
#>  9 <split [8000/2972]> Bootstrap09
#> 10 <split [8000/2972]> Bootstrap10
#> # ℹ 15 more rows
…
collect_predictions(final_fit)
#> # A tibble: 2,000 × 7
#>    id               .pred_yes .pred_no  .row .pred_class tip   .config          
#>    <chr>                <dbl>    <dbl> <int> <fct>       <fct> <chr>            
#>  1 train/test split     0.957   0.0426     4 yes         yes   Preprocessor1_Mo…
#>  2 train/test split     0.938   0.0621    10 yes         yes   Preprocessor1_Mo…
#>  3 train/test split     0.958   0.0416    19 yes         yes   Preprocessor1_Mo…
#>  4 train/test split     0.894   0.106     23 yes         yes   Preprocessor1_Mo…
#>  5 train/test split     0.943   0.0573    28 yes         yes   Preprocessor1_Mo…
#>  6 train/test split     0.979   0.0213    34 yes         yes   Preprocessor1_Mo…
#>  7 train/test split     0.954   0.0463    35 yes         yes   Preprocessor1_Mo…
#>  8 train/test split     0.928   0.0722    38 yes         yes   Preprocessor1_Mo…
#>  9 train/test split     0.985   0.0147    40 yes         yes   Preprocessor1_Mo…
#> 10 train/test split     0.948   0.0523    42 yes         no    Preprocessor1_Mo…
#> # ℹ 1,990 more rows
…
