Machine learning with tidymodels – 2 - Your data budget
…
latency: How long it took the frog to hatch after being stimulated - i.e. after being poked by a blunt probe (in seconds).

treatment: Whether or not they got gentamicin, a compound that knocks out the embryo’s lateral line (a sensory organ).

reflex: A measure of ear function (low, mid, full)

t_o_d: Time that the stimulus was applied (morning, afternoon, night)

age: Age at the time it was stimulated (in days)

Data on tree frog hatching

tree_frogs
#> # A tibble: 572 × 5
#>    treatment  reflex   age t_o_d     latency
#>    <chr>      <fct>  <dbl> <fct>       <dbl>
#>  1 control    full    5.40 morning        22
#>  2 control    low     4.18 night         360
#>  3 control    full    4.65 afternoon     106
#>  4 control    mid     4.14 night         180
#>  5 control    full    4.6  afternoon      60
#>  6 gentamicin full    5.36 morning        39
#>  7 control    full    4.56 afternoon     214
#>  8 control    full    5.43 morning        50
#>  9 control    full    4.63 afternoon     224
#> 10 control    full    5.40 morning        63
#> # … with 562 more rows
#> # ℹ Use `print(n = ...)` to see more rows
…
frog_train
#> # A tibble: 429 × 5
#>    treatment  reflex   age t_o_d     latency
#>    <chr>      <fct>  <dbl> <fct>       <dbl>
#>  1 control    full    5.36 morning        36
#>  2 gentamicin full    5.37 morning        72
#>  3 gentamicin full    4.65 afternoon     141
#>  4 control    full    5.42 morning        27
#>  5 control    full    5.43 morning        27
#>  6 gentamicin full    5.38 morning        73
#>  7 gentamicin full    5.42 morning        68
#>  8 gentamicin full    4.75 afternoon     124
#>  9 control    full    5.00 night          62
#> 10 control    full    5.39 morning        25
#> # … with 419 more rows
#> # ℹ Use `print(n = ...)` to see more rows
…
frog_test
#> # A tibble: 143 × 5
#>    treatment  reflex   age t_o_d     latency
#>    <chr>      <fct>  <dbl> <fct>       <dbl>
#>  1 control    full    5.40 morning        22
#>  2 control    low     4.18 night         360
#>  3 control    full    4.63 afternoon     224
#>  4 gentamicin full    4.75 afternoon     158
#>  5 control    mid     4.22 night          91
#>  6 gentamicin full    4.89 night         301
#>  7 control    full    5.38 morning         2
#>  8 control    full    4.80 afternoon      56
#>  9 control    full    5.36 morning        11
#> 10 control    full    5.40 morning        64
#> # … with 133 more rows
#> # ℹ Use `print(n = ...)` to see more rows
…
