Machine learning with tidymodels – 6 - Tuning Hyperparameters
…
set.seed(2)
grid <- 
  glm_spline_wflow %>% 
  extract_parameter_set_dials() %>% 
  grid_latin_hypercube(size = 25)

grid
#> # A tibble: 23 × 2
#>    angle distance
#>    <int>    <int>
#>  1    12        4
#>  2    15        8
#>  3     6       14
#>  4    10        5
#>  5    12       12
#>  6     7        8
#>  7    14        3
#>  8    14       13
#>  9    11       12
#> 10     8       11
#> # … with 13 more rows
#> # ℹ Use `print(n = ...)` to see more rows
…
set.seed(2)
grid <- 
  glm_spline_wflow %>% 
  extract_parameter_set_dials() %>% 
  grid_regular(levels = 25)

grid
#> # A tibble: 225 × 2
#>    angle distance
#>    <int>    <int>
#>  1     1        1
#>  2     2        1
#>  3     3        1
#>  4     4        1
#>  5     5        1
#>  6     6        1
#>  7     7        1
#>  8     8        1
#>  9     9        1
#> 10    10        1
#> # … with 215 more rows
#> # ℹ Use `print(n = ...)` to see more rows
…
set.seed(2)
grid <- 
  glm_spline_wflow %>% 
  extract_parameter_set_dials() %>% 
  update(angle = spline_degree(c(2L, 20L)),
         distance = spline_degree(c(2L, 20L))) %>% 
  grid_latin_hypercube(size = 25)

grid
#> # A tibble: 24 × 2
#>    angle distance
#>    <int>    <int>
#>  1    16        6
#>  2    20       11
#>  3     8       19
#>  4    14        7
#>  5    16       17
#>  6    10       11
#>  7    19        5
#>  8    18       17
#>  9    15       16
#> 10    11       15
#> # … with 14 more rows
#> # ℹ Use `print(n = ...)` to see more rows
…
collect_metrics(glm_spline_res)
#> # A tibble: 48 × 8
#>    angle distance .metric  .estimator  mean     n std_err .config              
#>    <int>    <int> <chr>    <chr>      <dbl> <int>   <dbl> <chr>                
#>  1    16        6 accuracy binary     0.610     1      NA Preprocessor01_Model1
#>  2    16        6 roc_auc  binary     0.649     1      NA Preprocessor01_Model1
#>  3    20       11 accuracy binary     0.613     1      NA Preprocessor02_Model1
#>  4    20       11 roc_auc  binary     0.649     1      NA Preprocessor02_Model1
#>  5     8       19 accuracy binary     0.619     1      NA Preprocessor03_Model1
#>  6     8       19 roc_auc  binary     0.652     1      NA Preprocessor03_Model1
#>  7    14        7 accuracy binary     0.610     1      NA Preprocessor04_Model1
#>  8    14        7 roc_auc  binary     0.650     1      NA Preprocessor04_Model1
#>  9    16       17 accuracy binary     0.617     1      NA Preprocessor05_Model1
#> 10    16       17 roc_auc  binary     0.649     1      NA Preprocessor05_Model1
#> # … with 38 more rows
#> # ℹ Use `print(n = ...)` to see more rows
…
collect_metrics(glm_spline_res, summarize = FALSE)
#> # A tibble: 48 × 7
#>    id         angle distance .metric  .estimator .estimate .config              
#>    <chr>      <int>    <int> <chr>    <chr>          <dbl> <chr>                
#>  1 validation    16        6 accuracy binary         0.610 Preprocessor01_Model1
#>  2 validation    16        6 roc_auc  binary         0.649 Preprocessor01_Model1
#>  3 validation    20       11 accuracy binary         0.613 Preprocessor02_Model1
#>  4 validation    20       11 roc_auc  binary         0.649 Preprocessor02_Model1
#>  5 validation     8       19 accuracy binary         0.619 Preprocessor03_Model1
#>  6 validation     8       19 roc_auc  binary         0.652 Preprocessor03_Model1
#>  7 validation    14        7 accuracy binary         0.610 Preprocessor04_Model1
#>  8 validation    14        7 roc_auc  binary         0.650 Preprocessor04_Model1
#>  9 validation    16       17 accuracy binary         0.617 Preprocessor05_Model1
#> 10 validation    16       17 roc_auc  binary         0.649 Preprocessor05_Model1
#> # … with 38 more rows
#> # ℹ Use `print(n = ...)` to see more rows
…
